{
  "value": "voltage",
  "children": [
    {
      "value": "10-130",
      "children": [
        {
          "value": "10-70",
          "children": [
            {
              "value": "10-40",
              "children": [
                {
                  "value": "10-20",
                  "children": [
                    {
                      "value": "10",
                      "children": []
                    },
                    {
                      "value": "11",
                      "children": []
                    },
                    {
                      "value": "12",
                      "children": []
                    },
                    {
                      "value": "13",
                      "children": []
                    },
                    {
                      "value": "14",
                      "children": []
                    },
                    {
                      "value": "15",
                      "children": []
                    },
                    {
                      "value": "16",
                      "children": []
                    },
                    {
                      "value": "17",
                      "children": []
                    },
                    {
                      "value": "18",
                      "children": []
                    },
                    {
                      "value": "19",
                      "children": []
                    },
                    {
                      "value": "20",
                      "children": []
                    }
                  ]
                },
                {
                  "value": "21-30",
                  "children": [
                    {
                      "value": "21",
                      "children": []
                    },
                    {
                      "value": "22",
                      "children": []
                    },
                    {
                      "value": "23",
                      "children": []
                    },
                    {
                      "value": "24",
                      "children": []
                    },
                    {
                      "value": "25",
                      "children": []
                    },
                    {
                      "value": "26",
                      "children": []
                    },
                    {
                      "value": "27",
                      "children": []
                    },
                    {
                      "value": "28",
                      "children": []
                    },
                    {
                      "value": "29",
                      "children": []
                    },
                    {
                      "value": "30",
                      "children": []
                    }
                  ]
                },
                {
                  "value": "31-40",
                  "children": [
                    {
                      "value": "31",
                      "children": []
                    },
                    {
                      "value": "32",
                      "children": []
                    },
                    {
                      "value": "33",
                      "children": []
                    },
                    {
                      "value": "34",
                      "children": []
                    },
                    {
                      "value": "35",
                      "children": []
                    },
                    {
                      "value": "36",
                      "children": []
                    },
                    {
                      "value": "37",
                      "children": []
                    },
                    {
                      "value": "38",
                      "children": []
                    },
                    {
                      "value": "39",
                      "children": []
                    },
                    {
                      "value": "40",
                      "children": []
                    }
                  ]
                }
              ]
            },
            {
              "value": "41-70",
              "children": [
                {
                  "value": "41-50",
                  "children": [
                    {
                      "value": "41",
                      "children": []
                    },
                    {
                      "value": "42",
                      "children": []
                    },
                    {
                      "value": "43",
                      "children": []
                    },
                    {
                      "value": "44",
                      "children": []
                    },
                    {
                      "value": "45",
                      "children": []
                    },
                    {
                      "value": "46",
                      "children": []
                    },
                    {
                      "value": "47",
                      "children": []
                    },
                    {
                      "value": "48",
                      "children": []
                    },
                    {
                      "value": "49",
                      "children": []
                    },
                    {
                      "value": "50",
                      "children": []
                    }
                  ]
                },
                {
                  "value": "51-60",
                  "children": [
                    {
                      "value": "51",
                      "children": []
                    },
                    {
                      "value": "52",
                      "children": []
                    },
                    {
                      "value": "53",
                      "children": []
                    },
                    {
                      "value": "54",
                      "children": []
                    },
                    {
                      "value": "55",
                      "children": []
                    },
                    {
                      "value": "56",
                      "children": []
                    },
                    {
                      "value": "57",
                      "children": []
                    },
                    {
                      "value": "58",
                      "children": []
                    },
                    {
                      "value": "59",
                      "children": []
                    },
                    {
                      "value": "60",
                      "children": []
                    }
                  ]
                },
                {
                  "value": "61-70",
                  "children": [
                    {
                      "value": "61",
                      "children": []
                    },
                    {
                      "value": "62",
                      "children": []
                    },
                    {
                      "value": "63",
                      "children": []
                    },
                    {
                      "value": "64",
                      "children": []
                    },
                    {
                      "value": "65",
                      "children": []
                    },
                    {
                      "value": "66",
                      "children": []
                    },
                    {
                      "value": "67",
                      "children": []
                    },
                    {
                      "value": "68",
                      "children": []
                    },
                    {
                      "value": "69",
                      "children": []
                    },
                    {
                      "value": "70",
                      "children": []
                    }
                  ]
                }
              ]
            }
          ]
        },
        {
          "value": "71-130",
          "children": [
            {
          "value": "71-80",
          "children": [
            {
                      "value": "71",
                      "children": []
                    },
                    {
                      "value": "72",
                      "children": []
                    },
                    {
                      "value": "73",
                      "children": []
                    },
                    {
                      "value": "74",
                      "children": []
                    },
                    {
                      "value": "75",
                      "children": []
                    },
                    {
                      "value": "76",
                      "children": []
                    },
                    {
                      "value": "77",
                      "children": []
                    },
                    {
                      "value": "78",
                      "children": []
                    },
                    {
                      "value": "79",
                      "children": []
                    },
                    {
                      "value": "80",
                      "children": []
                    }
          ]
        },
            {
          "value": "81-90",
          "children": [{
                      "value": "81",
                      "children": []
                    },
                    {
                      "value": "82",
                      "children": []
                    },
                    {
                      "value": "83",
                      "children": []
                    },
                    {
                      "value": "84",
                      "children": []
                    },
                    {
                      "value": "85",
                      "children": []
                    },
                    {
                      "value": "86",
                      "children": []
                    },
                    {
                      "value": "87",
                      "children": []
                    },
                    {
                      "value": "88",
                      "children": []
                    },
                    {
                      "value": "89",
                      "children": []
                    },
                    {
                      "value": "90",
                      "children": []
                    }]
        },
            {
          "value": "91-100",
          "children": [
            {
                      "value": "91",
                      "children": []
                    },
                    {
                      "value": "92",
                      "children": []
                    },
                    {
                      "value": "93",
                      "children": []
                    },
                    {
                      "value": "94",
                      "children": []
                    },
                    {
                      "value": "95",
                      "children": []
                    },
                    {
                      "value": "96",
                      "children": []
                    },
                    {
                      "value": "97",
                      "children": []
                    },
                    {
                      "value": "98",
                      "children": []
                    },
                    {
                      "value": "99",
                      "children": []
                    },
                    {
                      "value": "100",
                      "children": []
                    }
          ]
        },
            {
          "value": "101-110",
          "children": [
            {
                      "value": "101",
                      "children": []
                    },
                    {
                      "value": "102",
                      "children": []
                    },
                    {
                      "value": "103",
                      "children": []
                    },
                    {
                      "value": "104",
                      "children": []
                    },
                    {
                      "value": "105",
                      "children": []
                    },
                    {
                      "value": "106",
                      "children": []
                    },
                    {
                      "value": "107",
                      "children": []
                    },
                    {
                      "value": "108",
                      "children": []
                    },
                    {
                      "value": "109",
                      "children": []
                    },
                    {
                      "value": "110",
                      "children": []
                    }
          ]
        },
            {
          "value": "111-120",
          "children": [
            {
                      "value": "111",
                      "children": []
                    },
                    {
                      "value": "112",
                      "children": []
                    },
                    {
                      "value": "113",
                      "children": []
                    },
                    {
                      "value": "114",
                      "children": []
                    },
                    {
                      "value": "115",
                      "children": []
                    },
                    {
                      "value": "116",
                      "children": []
                    },
                    {
                      "value": "117",
                      "children": []
                    },
                    {
                      "value": "118",
                      "children": []
                    },
                    {
                      "value": "119",
                      "children": []
                    },
                    {
                      "value": "120",
                      "children": []
                    }
          ]
        },
            {
          "value": "121-130",
          "children": [
            {
                      "value": "121",
                      "children": []
                    },
                    {
                      "value": "122",
                      "children": []
                    },
                    {
                      "value": "123",
                      "children": []
                    },
                    {
                      "value": "124",
                      "children": []
                    },
                    {
                      "value": "125",
                      "children": []
                    },
                    {
                      "value": "126",
                      "children": []
                    },
                    {
                      "value": "127",
                      "children": []
                    },
                    {
                      "value": "128",
                      "children": []
                    },
                    {
                      "value": "129",
                      "children": []
                    },
                    {
                      "value": "130",
                      "children": []
                    }
          ]
        }
          ]
        }
      ]
    }
  ]
}